{
"id":"WVNU",
"name":"Willthefunperson's Visual Novel Utility",
"author":"willthefunperson",
"version":"2.4.1",
"description":"Utility for visual novel like dialogue",
"gameVersion":"0.97a-RC9",
"totalConversion":false,
"jars":["wvnu.jar"],
}
